<svg xmlns="http://www.w3.org/2000/svg" width="153.639" height="106.3" viewBox="0 0 153.639 106.3">
  <g id="Group_42" data-name="Group 42" transform="translate(1 1)">
    <line id="Line_160" data-name="Line 160" x1="5.741" y2="23.966" transform="translate(16.412 75.777)" fill="none" stroke="#fdfeff" stroke-miterlimit="10" stroke-width="2"/>
    <line id="Line_161" data-name="Line 161" x1="10.658" y1="17.988" transform="translate(5.013 49.478)" fill="none" stroke="#fdfeff" stroke-miterlimit="10" stroke-width="2"/>
    <line id="Line_162" data-name="Line 162" x1="19.382" y2="29.867" transform="translate(120.48 28.616)" fill="none" stroke="#fdfeff" stroke-miterlimit="10" stroke-width="2"/>
    <line id="Line_163" data-name="Line 163" x2="26.8" y2="25.249" transform="translate(120.753 58.945)" fill="none" stroke="#fdfeff" stroke-miterlimit="10" stroke-width="2"/>
    <line id="Line_164" data-name="Line 164" x1="58.489" y1="14.575" transform="translate(62.726 44.096)" fill="none" stroke="#fdfeff" stroke-linecap="round" stroke-miterlimit="10" stroke-width="2" stroke-dasharray="13.933 4.18 4.18 0 1.955 0.977"/>
    <line id="Line_165" data-name="Line 165" x1="4.393" y2="38.366" transform="translate(58.333 44.096)" fill="none" stroke="#fdfeff" stroke-miterlimit="10" stroke-width="2"/>
    <line id="Line_166" data-name="Line 166" x1="37.769" y1="3.795" transform="translate(19.847 77.143)" fill="none" stroke="#fdfeff" stroke-linecap="round" stroke-miterlimit="10" stroke-width="2" stroke-dasharray="13.933 2.787 69.665 0 1.955 0.977"/>
    <line id="Line_167" data-name="Line 167" y1="39.545" x2="15.206" transform="translate(62.726 4.552)" fill="none" stroke="#fdfeff" stroke-miterlimit="10" stroke-width="2"/>
    <line id="Line_168" data-name="Line 168" x1="46.497" y1="21.68" transform="translate(18.074 21.323)" fill="none" stroke="#fdfeff" stroke-miterlimit="10" stroke-width="2"/>
    <circle id="Ellipse_4" data-name="Ellipse 4" cx="5.629" cy="5.629" r="5.629" transform="translate(133.677 23.627)" fill="#fff" stroke="#4dc9eb" stroke-miterlimit="10" stroke-width="2"/>
    <circle id="Ellipse_5" data-name="Ellipse 5" cx="5.093" cy="5.093" r="5.093" transform="translate(141.453 78.452)" fill="#fff" stroke="#4dc9eb" stroke-miterlimit="10" stroke-width="2"/>
    <circle id="Ellipse_6" data-name="Ellipse 6" cx="7.506" cy="7.506" r="7.506" transform="translate(12.311 14.654)" stroke-dasharray="13.933 2.787 69.665 0 1.955 0.977" stroke="#4dc9eb" stroke-linecap="round" stroke-miterlimit="10" stroke-width="2" fill="#fff"/>
    <circle id="Ellipse_7" data-name="Ellipse 7" cx="4.825" cy="4.825" r="4.825" transform="translate(72.645)" fill="#fff" stroke="#4dc9eb" stroke-miterlimit="10" stroke-width="2"/>
    <circle id="Ellipse_8" data-name="Ellipse 8" cx="4.825" cy="4.825" r="4.825" transform="translate(0 45.387)" fill="#fff" stroke="#4dc9eb" stroke-miterlimit="10" stroke-width="2"/>
    <circle id="Ellipse_9" data-name="Ellipse 9" cx="15.548" cy="15.548" r="15.548" transform="translate(47.178 28.549)" stroke-dasharray="69.665 2.787 69.665 0 1.955 0.977" stroke="#fdfeff" stroke-linecap="round" stroke-miterlimit="10" stroke-width="2" fill="#00b2e2"/>
    <circle id="Ellipse_10" data-name="Ellipse 10" cx="11.259" cy="11.259" r="11.259" transform="translate(9.784 65.799)" fill="#00b2e2" stroke="#fdfeff" stroke-miterlimit="10" stroke-width="2"/>
    <circle id="Ellipse_11" data-name="Ellipse 11" cx="5.897" cy="5.897" r="5.897" transform="translate(51.719 75.041)" fill="#00b2e2" stroke="#fdfeff" stroke-miterlimit="10" stroke-width="2"/>
    <line id="Line_169" data-name="Line 169" x1="5.741" y2="23.966" transform="translate(115.012 58.945)" fill="none" stroke="#fdfeff" stroke-miterlimit="10" stroke-width="2"/>
    <circle id="Ellipse_12" data-name="Ellipse 12" cx="4.557" cy="4.557" r="4.557" transform="translate(110.455 78.354)" fill="#fff" stroke="#4dc9eb" stroke-miterlimit="10" stroke-width="2"/>
    <circle id="Ellipse_13" data-name="Ellipse 13" cx="4.557" cy="4.557" r="4.557" transform="translate(11.855 95.186)" fill="#fff" stroke="#4dc9eb" stroke-miterlimit="10" stroke-width="2"/>
    <circle id="Ellipse_14" data-name="Ellipse 14" cx="11.259" cy="11.259" r="11.259" transform="translate(109.495 47.686)" fill="#00b2e2" stroke="#fdfeff" stroke-miterlimit="10" stroke-width="2"/>
  </g>
</svg>
